#x y depth
313.4   -4.3  35.0
474.0  -60.2  35.0
496.6 -134.9  35.5
539.2 -100.8  37.4
573.0  -58.8  39.3
637.9   25.2  32.5
641.0  -90.5  35.0
653.2   61.8  37.8
687.6   17.0 106.0
722.1 -104.5  35.0
797.7  -38.4  35.0
815.7   -7.4  35.0
889.9  -41.4  35.0
